{
  "resource": "Violations - Find - Success",
  "http_method": "GET",
  "route": "/api/v1/violations",
  "description": "Violations within area.",
  "explanation": "Possibility to retrieve news in area of some point.",
  "parameters": [
    {
      "required": true,
      "Type": "String",
      "name": "latitude",
      "description": "Point's latitude, which we use to determine area of inclusion."
    },
    {
      "required": true,
      "Type": "String",
      "name": "longitude",
      "description": "Point's longitude, which we use to determine area of inclusion."
    },
    {
      "Type": "Integer, String",
      "name": "distance",
      "description": "Area in metres on map, where objects located"
    }
  ],
  "response_fields": [
    {
      "Type": "JSON object",
      "name": "violations",
      "description": " violations"
    }
  ],
  "requests": [
    {
      "request_method": "GET",
      "request_path": "/api/v1/violations?latitude=55.765494&longitude=49.149921",
      "request_body": null,
      "request_headers": {
        "Content-Type": "application/json",
        "Accept": "application/json",
        "Authorization": "Bearer eyJ0eXAiOiJKV1QiLCJhbGciOiJIUzI1NiJ9.eyJwaG9uZV9udW1iZXIiOiIrNjY4Mjk0NjQ5MyIsInNvY2lhbF9pZCI6Iis2NjgyOTQ2NDkzIiwic29jaWFsX21hcmtlciI6MywiY3JlYXRlZF9hdCI6IjIwMTYtMTAtMDYgMTY6MjA6MTggKzAzMDAiLCJ1cGRhdGVkX2F0IjoiMjAxNi0xMC0wNiAxNjoyMDoxOCArMDMwMCJ9.MX4bVgjMiWP8YuaKI2KH0u6ZuFtOKhrE9oeFhZshdIc",
        "Host": "example.org",
        "Cookie": ""
      },
      "request_query_parameters": {
        "latitude": "55.765494",
        "longitude": "49.149921"
      },
      "request_content_type": "application/json",
      "response_status": 200,
      "response_status_text": "OK",
      "response_body": "{\n  \"violations\": [\n\n  ]\n}",
      "response_headers": {
        "X-Frame-Options": "SAMEORIGIN",
        "X-XSS-Protection": "1; mode=block",
        "X-Content-Type-Options": "nosniff",
        "Content-Type": "application/json; charset=utf-8",
        "ETag": "W/\"86483be399535d060875c63973174a84\"",
        "Cache-Control": "max-age=0, private, must-revalidate",
        "X-Request-Id": "4db257f6-0c40-453e-93e9-6794dd911cf8",
        "X-Runtime": "0.037689",
        "Content-Length": "17"
      },
      "response_content_type": "application/json; charset=utf-8",
      "curl": "curl \"sochiatlas.herokuapp.com/api/v1/violations?latitude=55.765494&longitude=49.149921\" -X GET \\\n\t-H \"Content-Type: application/json\" \\\n\t-H \"Accept: application/json\" \\\n\t-H \"Authorization: Bearer eyJ0eXAiOiJKV1QiLCJhbGciOiJIUzI1NiJ9.eyJwaG9uZV9udW1iZXIiOiIrNjY4Mjk0NjQ5MyIsInNvY2lhbF9pZCI6Iis2NjgyOTQ2NDkzIiwic29jaWFsX21hcmtlciI6MywiY3JlYXRlZF9hdCI6IjIwMTYtMTAtMDYgMTY6MjA6MTggKzAzMDAiLCJ1cGRhdGVkX2F0IjoiMjAxNi0xMC0wNiAxNjoyMDoxOCArMDMwMCJ9.MX4bVgjMiWP8YuaKI2KH0u6ZuFtOKhrE9oeFhZshdIc\""
    }
  ]
}