{
  "resource": "Private token",
  "http_method": "GET",
  "route": "/private/tokens",
  "description": "Show all tokens",
  "explanation": null,
  "parameters": [

  ],
  "response_fields": [
    {
      "Type": "Array of tokens",
      "name": "places",
      "description": " places"
    },
    {
      "Type": "Array of tokens",
      "name": "users",
      "description": " users"
    }
  ],
  "requests": [

  ]
}