{
  "resource": "Friends - Delete - Errors",
  "http_method": "DELETE",
  "route": "/api/v1/friends/:id",
  "description": "Remove random user from friends by current user",
  "explanation": "Auth client can remove user from friends request by id and type.\n        This endpoint returns 404 if friend was not found.",
  "parameters": [
    {
      "required": true,
      "Type": "Integer",
      "name": "id",
      "description": "Record id"
    },
    {
      "required": true,
      "Type": "Integer, String, Boolean",
      "name": "type",
      "description": "Boolean flag. Allow 1, '1', true and 0, '0', false.\n        Value from this field define record type(user: 0, place: 1)."
    }
  ],
  "response_fields": [

  ],
  "requests": [
    {
      "request_method": "DELETE",
      "request_path": "/api/v1/friends/41",
      "request_body": "{\"type\":\"1\"}",
      "request_headers": {
        "Content-Type": "application/json",
        "Accept": "application/json",
        "Host": "",
        "Authorization": "Bearer eyJ0eXAiOiJKV1QiLCJhbGciOiJIUzI1NiJ9.eyJwaG9uZV9udW1iZXIiOiIrNzQ4NzIwMzkzNCIsInNvY2lhbF9pZCI6IjM0MjM5OTE4Mzc0NDMiLCJzb2NpYWxfbWFya2VyIjoyLCJjcmVhdGVkX2F0IjoiMjAxNi0xMC0wNiAxNjoyMDoxMiArMDMwMCIsInVwZGF0ZWRfYXQiOiIyMDE2LTEwLTA2IDE2OjIwOjEyICswMzAwIn0.IJNQhvPSXRldXW7RJfqc94zteOH2qOs_eJeT7mXzMF4",
        "Cookie": ""
      },
      "request_query_parameters": {
      },
      "request_content_type": "application/json",
      "response_status": 404,
      "response_status_text": "Not Found",
      "response_body": "{\n  \"errors\": \"Place not found\"\n}",
      "response_headers": {
        "X-Frame-Options": "SAMEORIGIN",
        "X-XSS-Protection": "1; mode=block",
        "X-Content-Type-Options": "nosniff",
        "Content-Type": "application/json; charset=utf-8",
        "Cache-Control": "no-cache",
        "X-Request-Id": "de8e70c5-cff5-4588-be5b-339430098516",
        "X-Runtime": "0.005871",
        "Content-Length": "28"
      },
      "response_content_type": "application/json; charset=utf-8",
      "curl": "curl \"sochiatlas.herokuapp.com/api/v1/friends/41\" -d '{\"type\":\"1\"}' -X DELETE \\\n\t-H \"Content-Type: application/json\" \\\n\t-H \"Accept: application/json\" \\\n\t-H \"Authorization: Bearer eyJ0eXAiOiJKV1QiLCJhbGciOiJIUzI1NiJ9.eyJwaG9uZV9udW1iZXIiOiIrNzQ4NzIwMzkzNCIsInNvY2lhbF9pZCI6IjM0MjM5OTE4Mzc0NDMiLCJzb2NpYWxfbWFya2VyIjoyLCJjcmVhdGVkX2F0IjoiMjAxNi0xMC0wNiAxNjoyMDoxMiArMDMwMCIsInVwZGF0ZWRfYXQiOiIyMDE2LTEwLTA2IDE2OjIwOjEyICswMzAwIn0.IJNQhvPSXRldXW7RJfqc94zteOH2qOs_eJeT7mXzMF4\""
    }
  ]
}