{
  "resource": "Chats - Get - Success",
  "http_method": "GET",
  "route": "/api/v1/chats/:id",
  "description": "Allow to current user get chat by id and current user is user",
  "explanation": "Allow to get chat by id. This endpoint returns 200 and chat json if id is valid",
  "parameters": [
    {
      "Type": "Integer",
      "name": "id",
      "description": "Chat's id."
    }
  ],
  "response_fields": [
    {
      "Type": "JSON object",
      "name": "chat",
      "description": " chat"
    },
    {
      "Type": "Integer",
      "scope": "chat",
      "name": "id",
      "description": "Chat id"
    },
    {
      "Type": "JSON object",
      "scope": "chat",
      "name": "users",
      "description": "Chat users"
    },
    {
      "Type": "String",
      "scope": [
        "chat",
        "users"
      ],
      "name": "recipient_phone_number",
      "description": "Recipient phone number"
    },
    {
      "Type": "String",
      "scope": [
        "chat",
        "users"
      ],
      "name": "sender_phone_number",
      "description": "Sender phone number"
    },
    {
      "Type": "Integer",
      "scope": "chats",
      "name": "unread_sender_messages_count",
      "description": "Show number of unread messages in this chat for sender"
    },
    {
      "Type": "Integer",
      "scope": "chats",
      "name": "unread_recipient_messages_count",
      "description": "Show common number of unread messages in this chat for recipient"
    },
    {
      "Type": "Integer",
      "scope": "chat",
      "name": "last_read_message_id",
      "description": "Id of last read message in this chat.\n          0 if all messages in chat not reading"
    },
    {
      "Type": "JSON object",
      "scope": "chat",
      "name": "last_message",
      "description": "Chat last message"
    },
    {
      "Type": "Integer",
      "scope": [
        "chat",
        "last_message"
      ],
      "name": "id",
      "description": "Last message id"
    },
    {
      "Type": "String",
      "scope": [
        "chat",
        "last_message"
      ],
      "name": "body",
      "description": "Text of the message"
    },
    {
      "Type": "JSON object",
      "scope": [
        "chat",
        "last_message"
      ],
      "name": "sender",
      "description": "If sender is user"
    },
    {
      "scope": [
        "chat",
        "last_message",
        "sender"
      ],
      "Type": "Integer",
      "name": "id",
      "description": "User id"
    },
    {
      "scope": [
        "chat",
        "last_message",
        "sender"
      ],
      "Type": "String",
      "name": "first_name",
      "description": "User first_name"
    },
    {
      "scope": [
        "chat",
        "last_message",
        "sender"
      ],
      "Type": "String",
      "name": "last_name",
      "description": "User last_name"
    },
    {
      "scope": [
        "chat",
        "last_message",
        "sender"
      ],
      "Type": "Integer",
      "name": "age",
      "description": "User age"
    },
    {
      "scope": [
        "chat",
        "last_message",
        "sender"
      ],
      "Type": "String",
      "name": "sex",
      "description": "User sex"
    },
    {
      "scope": [
        "chat",
        "last_message",
        "sender"
      ],
      "Type": "String",
      "name": "latitude",
      "description": "User latitude"
    },
    {
      "scope": [
        "chat",
        "last_message",
        "sender"
      ],
      "Type": "String",
      "name": "longitude",
      "description": "User longitude"
    },
    {
      "scope": [
        "chat",
        "last_message",
        "sender"
      ],
      "Type": "String",
      "name": "phone_number",
      "description": "User phone number"
    },
    {
      "scope": [
        "chat",
        "last_message",
        "sender"
      ],
      "Type": "String",
      "name": "image_path",
      "description": "User image url"
    },
    {
      "Type": "Integer",
      "scope": [
        "chat",
        "last_message"
      ],
      "name": "created_at_millis",
      "description": "Created at timestamp in millis"
    },
    {
      "Type": "Boolean",
      "scope": [
        "chat",
        "last_message"
      ],
      "name": "read",
      "description": "This flag show state of current message read or unread"
    }
  ],
  "requests": [
    {
      "request_method": "GET",
      "request_path": "/api/v1/chats/5",
      "request_body": null,
      "request_headers": {
        "Content-Type": "application/json",
        "Accept": "application/json",
        "Host": "",
        "Authorization": "Bearer eyJ0eXAiOiJKV1QiLCJhbGciOiJIUzI1NiJ9.eyJwaG9uZV9udW1iZXIiOiIrMTEwODM0OTk2MDUiLCJzb2NpYWxfaWQiOiI0NTc5MjYzNTMyNTQzIiwic29jaWFsX21hcmtlciI6MCwiY3JlYXRlZF9hdCI6IjIwMTYtMTAtMDYgMTY6MjA6MDkgKzAzMDAiLCJ1cGRhdGVkX2F0IjoiMjAxNi0xMC0wNiAxNjoyMDowOSArMDMwMCJ9.TT6QxMbmW98qOTkCVGCVZYoDX-Zh-ZKwpif8TP7a5JY",
        "Cookie": ""
      },
      "request_query_parameters": {
        "{}": null
      },
      "request_content_type": "application/json",
      "response_status": 200,
      "response_status_text": "OK",
      "response_body": "{\n  \"chat\": {\n    \"id\": 5,\n    \"users\": {\n      \"recipient_phone_number\": \"+3254627424\",\n      \"sender_phone_number\": \"+11083499605\"\n    },\n    \"unread_sender_messages_count\": 0,\n    \"unread_recipient_messages_count\": 1,\n    \"last_message\": {\n      \"id\": 13,\n      \"body\": \"Consequuntur beatae necessitatibus error aut est.\",\n      \"created_at_millis\": 1475760009,\n      \"read\": false,\n      \"sender\": {\n        \"id\": 37,\n        \"first_name\": \"Adelle\",\n        \"last_name\": \"Yundt\",\n        \"age\": 60,\n        \"sex\": \"Female\",\n        \"latitude\": \"42.678059\",\n        \"longitude\": \"-61.592795\",\n        \"phone_number\": \"+11083499605\",\n        \"image_path\": \"https://pigment.github.io/fake-logos/logos/medium/color/12.png\"\n      }\n    },\n    \"last_read_message_id\": 13,\n    \"recipient\": {\n      \"id\": 23,\n      \"name\": \"Новая улица\",\n      \"description\": \"ИП Поляков\",\n      \"additional_phone_number\": \"(925)905-80-01\",\n      \"image_path\": \"https://pigment.github.io/fake-logos/logos/medium/color/7.png\",\n      \"address\": \"пр. Колхозная, 882\",\n      \"latitude\": \"52.606808\",\n      \"longitude\": \"-104.447081\",\n      \"weekdays_hours\": \"7:30 - 17:00\",\n      \"weekends_hours\": \"10:00 - 17:00, 0\",\n      \"average_rating\": 53.44,\n      \"phone_number\": \"+3254627424\"\n    }\n  }\n}",
      "response_headers": {
        "X-Frame-Options": "SAMEORIGIN",
        "X-XSS-Protection": "1; mode=block",
        "X-Content-Type-Options": "nosniff",
        "Content-Type": "application/json; charset=utf-8",
        "ETag": "W/\"4ed6ae86c87c1aa0d1473f41279b6655\"",
        "Cache-Control": "max-age=0, private, must-revalidate",
        "X-Request-Id": "1068d363-41ff-4eda-a0a5-93d3ae968a45",
        "X-Runtime": "0.043608",
        "Content-Length": "987"
      },
      "response_content_type": "application/json; charset=utf-8",
      "curl": "curl \"sochiatlas.herokuapp.com/api/v1/chats/5\" -X GET \\\n\t-H \"Content-Type: application/json\" \\\n\t-H \"Accept: application/json\" \\\n\t-H \"Authorization: Bearer eyJ0eXAiOiJKV1QiLCJhbGciOiJIUzI1NiJ9.eyJwaG9uZV9udW1iZXIiOiIrMTEwODM0OTk2MDUiLCJzb2NpYWxfaWQiOiI0NTc5MjYzNTMyNTQzIiwic29jaWFsX21hcmtlciI6MCwiY3JlYXRlZF9hdCI6IjIwMTYtMTAtMDYgMTY6MjA6MDkgKzAzMDAiLCJ1cGRhdGVkX2F0IjoiMjAxNi0xMC0wNiAxNjoyMDowOSArMDMwMCJ9.TT6QxMbmW98qOTkCVGCVZYoDX-Zh-ZKwpif8TP7a5JY\""
    }
  ]
}