{
  "resource": "Chats - Get - Success",
  "http_method": "GET",
  "route": "/api/v1/chats/:id",
  "description": "Allow to current user get chat by id and current user is place",
  "explanation": "Allow to get chat by id.\n\n        This endpoint returns 200 and chat json if id is valid",
  "parameters": [
    {
      "Type": "Integer",
      "name": "id",
      "description": "Chat's id."
    }
  ],
  "response_fields": [
    {
      "Type": "JSON object",
      "name": "chat",
      "description": " chat"
    },
    {
      "Type": "Integer",
      "scope": "chat",
      "name": "id",
      "description": "Chat id"
    },
    {
      "Type": "JSON object",
      "scope": "chat",
      "name": "users",
      "description": "Chat users"
    },
    {
      "Type": "String",
      "scope": [
        "chat",
        "users"
      ],
      "name": "recipient_phone_number",
      "description": "Recipient phone number"
    },
    {
      "Type": "String",
      "scope": [
        "chat",
        "users"
      ],
      "name": "sender_phone_number",
      "description": "Sender phone number"
    },
    {
      "Type": "Integer",
      "scope": "chats",
      "name": "unread_sender_messages_count",
      "description": "Show number of unread messages in this chat for sender"
    },
    {
      "Type": "Integer",
      "scope": "chats",
      "name": "unread_recipient_messages_count",
      "description": "Show common number of unread messages in this chat for recipient"
    },
    {
      "Type": "Integer",
      "scope": "chat",
      "name": "last_read_message_id",
      "description": "Id of last read message in this chat.\n          0 if all messages in chat not reading"
    },
    {
      "Type": "JSON object",
      "scope": "chat",
      "name": "last_message",
      "description": "Chat last message"
    },
    {
      "Type": "Integer",
      "scope": [
        "chat",
        "last_message"
      ],
      "name": "id",
      "description": "Last message id"
    },
    {
      "Type": "String",
      "scope": [
        "chat",
        "last_message"
      ],
      "name": "body",
      "description": "Text of the message"
    },
    {
      "Type": "JSON object",
      "scope": [
        "chat",
        "last_message"
      ],
      "name": "sender",
      "description": "If sender is place"
    },
    {
      "scope": [
        "chat",
        "last_message",
        "sender"
      ],
      "Type": "Integer",
      "name": "id",
      "description": "Place id"
    },
    {
      "scope": [
        "chat",
        "last_message",
        "sender"
      ],
      "Type": "String",
      "name": "name",
      "description": "Place name(Place title)"
    },
    {
      "scope": [
        "chat",
        "last_message",
        "sender"
      ],
      "Type": "String",
      "name": "description",
      "description": "Place description"
    },
    {
      "scope": [
        "chat",
        "last_message",
        "sender"
      ],
      "Type": "String",
      "name": "additional_phone_number",
      "description": "Place official number"
    },
    {
      "scope": [
        "chat",
        "last_message",
        "sender"
      ],
      "Type": "String",
      "name": "image_path",
      "description": "Place image url"
    },
    {
      "scope": [
        "chat",
        "last_message",
        "sender"
      ],
      "Type": "String",
      "name": "latitude",
      "description": "Place latitude"
    },
    {
      "scope": [
        "chat",
        "last_message",
        "sender"
      ],
      "Type": "String",
      "name": "longitude",
      "description": "Place longitude"
    },
    {
      "scope": [
        "chat",
        "last_message",
        "sender"
      ],
      "Type": "String",
      "name": "average_rating",
      "description": "Average rating of place"
    },
    {
      "scope": [
        "chat",
        "last_message",
        "sender"
      ],
      "Type": "String",
      "name": "phone_number",
      "description": "Place phone number"
    },
    {
      "Type": "Integer",
      "scope": [
        "chat",
        "last_message"
      ],
      "name": "created_at_millis",
      "description": "Created at timestamp in millis"
    },
    {
      "Type": "Boolean",
      "scope": [
        "chat",
        "last_message"
      ],
      "name": "read",
      "description": "This flag show state of current message read or unread"
    }
  ],
  "requests": [
    {
      "request_method": "GET",
      "request_path": "/api/v1/chats/6",
      "request_body": null,
      "request_headers": {
        "Content-Type": "application/json",
        "Accept": "application/json",
        "Host": "",
        "Authorization": "Bearer eyJ0eXAiOiJKV1QiLCJhbGciOiJIUzI1NiJ9.eyJwaG9uZV9udW1iZXIiOiIrOTM0MjE5MTA1MCIsInNvY2lhbF9pZCI6IjQyNTkzNTc4NDk1NDEiLCJzb2NpYWxfbWFya2VyIjoxLCJjcmVhdGVkX2F0IjoiMjAxNi0xMC0wNiAxNjoyMDowOSArMDMwMCIsInVwZGF0ZWRfYXQiOiIyMDE2LTEwLTA2IDE2OjIwOjA5ICswMzAwIn0.NpJDI49bzydJg2JImCtgSu9QxjxtZrST1TSkLFQsZto",
        "Cookie": ""
      },
      "request_query_parameters": {
        "{}": null
      },
      "request_content_type": "application/json",
      "response_status": 200,
      "response_status_text": "OK",
      "response_body": "{\n  \"chat\": {\n    \"id\": 6,\n    \"users\": {\n      \"recipient_phone_number\": \"+7187837424\",\n      \"sender_phone_number\": \"+9342191050\"\n    },\n    \"unread_sender_messages_count\": 0,\n    \"unread_recipient_messages_count\": 1,\n    \"last_message\": {\n      \"id\": 14,\n      \"body\": \"Cupiditate iste consequuntur facere voluptatibus.\",\n      \"created_at_millis\": 1475760009,\n      \"read\": false,\n      \"sender\": {\n        \"id\": 25,\n        \"name\": \"Карла Маркса ул.\",\n        \"description\": \"ОП СнабСнаб\",\n        \"additional_phone_number\": \"(992)094-12-46\",\n        \"image_path\": \"https://pigment.github.io/fake-logos/logos/medium/color/5.png\",\n        \"address\": \"Луговая площадь, 881\",\n        \"latitude\": \"-45.516306\",\n        \"longitude\": \"152.158058\",\n        \"weekdays_hours\": \"7:30 - 17:00\",\n        \"weekends_hours\": \"10:00 - 17:00, 0\",\n        \"average_rating\": 13.96,\n        \"phone_number\": \"+9342191050\"\n      }\n    },\n    \"last_read_message_id\": 14,\n    \"recipient\": {\n      \"id\": 24,\n      \"name\": \"улица Школьная\",\n      \"description\": \"ОП Зинаида\",\n      \"additional_phone_number\": \"(963)572-77-21\",\n      \"image_path\": \"https://pigment.github.io/fake-logos/logos/medium/color/12.png\",\n      \"address\": \"Цветочная пр., 447\",\n      \"latitude\": \"62.009001\",\n      \"longitude\": \"60.930665\",\n      \"weekdays_hours\": \"7:30 - 17:00\",\n      \"weekends_hours\": \"10:00 - 17:00, 0\",\n      \"average_rating\": 13.35,\n      \"phone_number\": \"+7187837424\"\n    }\n  }\n}",
      "response_headers": {
        "X-Frame-Options": "SAMEORIGIN",
        "X-XSS-Protection": "1; mode=block",
        "X-Content-Type-Options": "nosniff",
        "Content-Type": "application/json; charset=utf-8",
        "ETag": "W/\"0647c5fc5688d8a761e27ced56f17d1c\"",
        "Cache-Control": "max-age=0, private, must-revalidate",
        "X-Request-Id": "76602d1e-5ef3-459d-a59c-e0778d251c0b",
        "X-Runtime": "0.048689",
        "Content-Length": "1182"
      },
      "response_content_type": "application/json; charset=utf-8",
      "curl": "curl \"sochiatlas.herokuapp.com/api/v1/chats/6\" -X GET \\\n\t-H \"Content-Type: application/json\" \\\n\t-H \"Accept: application/json\" \\\n\t-H \"Authorization: Bearer eyJ0eXAiOiJKV1QiLCJhbGciOiJIUzI1NiJ9.eyJwaG9uZV9udW1iZXIiOiIrOTM0MjE5MTA1MCIsInNvY2lhbF9pZCI6IjQyNTkzNTc4NDk1NDEiLCJzb2NpYWxfbWFya2VyIjoxLCJjcmVhdGVkX2F0IjoiMjAxNi0xMC0wNiAxNjoyMDowOSArMDMwMCIsInVwZGF0ZWRfYXQiOiIyMDE2LTEwLTA2IDE2OjIwOjA5ICswMzAwIn0.NpJDI49bzydJg2JImCtgSu9QxjxtZrST1TSkLFQsZto\""
    }
  ]
}