{
  "resource": "Friendships - Find - Success",
  "http_method": "GET",
  "route": "/api/v1/friendships",
  "description": "Finding current user pending friends if friends not present",
  "explanation": "Auth client can find current user requested or pending friends.\n          This endpoint returns empty if friends not found.",
  "parameters": [
    {
      "Type": "Integer, String, Boolean",
      "name": "pending",
      "description": "Boolean flag. Allow 1, '1', true and 0, '0', false.\n        If value is empty it sets to false by default"
    }
  ],
  "response_fields": [
    {
      "Type": "JSON object",
      "name": "requested_users",
      "description": " requested users"
    },
    {
      "Type": "JSON object",
      "name": "requested_places",
      "description": " requested places"
    }
  ],
  "requests": [
    {
      "request_method": "GET",
      "request_path": "/api/v1/friendships?pending=1",
      "request_body": null,
      "request_headers": {
        "Content-Type": "application/json",
        "Accept": "application/json",
        "Host": "",
        "Authorization": "Bearer eyJ0eXAiOiJKV1QiLCJhbGciOiJIUzI1NiJ9.eyJwaG9uZV9udW1iZXIiOiIrMTMyNTkzNjY2MjYiLCJzb2NpYWxfaWQiOiI0MTQ1NjQyMzUxNTU3Iiwic29jaWFsX21hcmtlciI6MiwiY3JlYXRlZF9hdCI6IjIwMTYtMTAtMDYgMTY6MjA6MTMgKzAzMDAiLCJ1cGRhdGVkX2F0IjoiMjAxNi0xMC0wNiAxNjoyMDoxMyArMDMwMCJ9.LaxfFPplN5R28fUzKDFAhSyllpeR7okHqG9sHAcQ83g",
        "Cookie": ""
      },
      "request_query_parameters": {
        "pending": "1"
      },
      "request_content_type": "application/json",
      "response_status": 200,
      "response_status_text": "OK",
      "response_body": "{\n  \"pending_users\": [\n\n  ],\n  \"pending_places\": [\n\n  ]\n}",
      "response_headers": {
        "X-Frame-Options": "SAMEORIGIN",
        "X-XSS-Protection": "1; mode=block",
        "X-Content-Type-Options": "nosniff",
        "Content-Type": "application/json; charset=utf-8",
        "ETag": "W/\"be986fcc67e8db05cdb00a58c4eaff32\"",
        "Cache-Control": "max-age=0, private, must-revalidate",
        "X-Request-Id": "0e993e55-aeab-4b28-9f2a-a55bc6fed3fa",
        "X-Runtime": "0.021663",
        "Content-Length": "40"
      },
      "response_content_type": "application/json; charset=utf-8",
      "curl": "curl \"sochiatlas.herokuapp.com/api/v1/friendships?pending=1\" -X GET \\\n\t-H \"Content-Type: application/json\" \\\n\t-H \"Accept: application/json\" \\\n\t-H \"Authorization: Bearer eyJ0eXAiOiJKV1QiLCJhbGciOiJIUzI1NiJ9.eyJwaG9uZV9udW1iZXIiOiIrMTMyNTkzNjY2MjYiLCJzb2NpYWxfaWQiOiI0MTQ1NjQyMzUxNTU3Iiwic29jaWFsX21hcmtlciI6MiwiY3JlYXRlZF9hdCI6IjIwMTYtMTAtMDYgMTY6MjA6MTMgKzAzMDAiLCJ1cGRhdGVkX2F0IjoiMjAxNi0xMC0wNiAxNjoyMDoxMyArMDMwMCJ9.LaxfFPplN5R28fUzKDFAhSyllpeR7okHqG9sHAcQ83g\""
    }
  ]
}