{
  "resource": "Black_list - Find - Success",
  "http_method": "GET",
  "route": "/api/v1/black_lists/:phone_number",
  "description": "Checks if user is in the black list.",
  "explanation": "Possibility to retrieve current place's objects from black list.",
  "parameters": [
    {
      "Type": "String",
      "name": "phone_number",
      "description": "User's or place's phone number for check"
    }
  ],
  "response_fields": [
    {
      "Type": "Boolean",
      "name": "blocked",
      "description": "Returns true if blocked. False otherwise."
    }
  ],
  "requests": [
    {
      "request_method": "GET",
      "request_path": "/api/v1/black_lists/+9647078583",
      "request_body": null,
      "request_headers": {
        "Content-Type": "application/json",
        "Accept": "application/json",
        "Authorization": "Bearer eyJ0eXAiOiJKV1QiLCJhbGciOiJIUzI1NiJ9.eyJwaG9uZV9udW1iZXIiOiIrMTk0NjE3OTkxNzIiLCJzb2NpYWxfaWQiOiIxOTYzNjU3NTA0ODgwIiwic29jaWFsX21hcmtlciI6MiwiY3JlYXRlZF9hdCI6IjIwMTYtMTAtMDYgMTY6MjA6MDggKzAzMDAiLCJ1cGRhdGVkX2F0IjoiMjAxNi0xMC0wNiAxNjoyMDowOCArMDMwMCJ9.FEfPLN35ZJXyqNIFdbRMFMd-3H_0uyQLnxo4-lQXVcE",
        "Host": "example.org",
        "Cookie": ""
      },
      "request_query_parameters": {
        "{}": null
      },
      "request_content_type": "application/json",
      "response_status": 200,
      "response_status_text": "OK",
      "response_body": "{\n  \"blocked\": true\n}",
      "response_headers": {
        "X-Frame-Options": "SAMEORIGIN",
        "X-XSS-Protection": "1; mode=block",
        "X-Content-Type-Options": "nosniff",
        "Content-Type": "application/json; charset=utf-8",
        "ETag": "W/\"9ce02c12062267905b755c90a9ea6a67\"",
        "Cache-Control": "max-age=0, private, must-revalidate",
        "X-Request-Id": "59069aa9-428b-49b8-aab5-f9be7a7da56a",
        "X-Runtime": "0.031441",
        "Content-Length": "16"
      },
      "response_content_type": "application/json; charset=utf-8",
      "curl": "curl \"sochiatlas.herokuapp.com/api/v1/black_lists/+9647078583\" -X GET \\\n\t-H \"Content-Type: application/json\" \\\n\t-H \"Accept: application/json\" \\\n\t-H \"Authorization: Bearer eyJ0eXAiOiJKV1QiLCJhbGciOiJIUzI1NiJ9.eyJwaG9uZV9udW1iZXIiOiIrMTk0NjE3OTkxNzIiLCJzb2NpYWxfaWQiOiIxOTYzNjU3NTA0ODgwIiwic29jaWFsX21hcmtlciI6MiwiY3JlYXRlZF9hdCI6IjIwMTYtMTAtMDYgMTY6MjA6MDggKzAzMDAiLCJ1cGRhdGVkX2F0IjoiMjAxNi0xMC0wNiAxNjoyMDowOCArMDMwMCJ9.FEfPLN35ZJXyqNIFdbRMFMd-3H_0uyQLnxo4-lQXVcE\""
    }
  ]
}