{
  "resource": "Friends - Create - Success",
  "http_method": "POST",
  "route": "/api/v1/friends",
  "description": "Create friend request from any user who is not a friend by current user",
  "explanation": "Auth client can create friend request to any user or place by id and type.\n        This endpoint returns 201 if friend request created",
  "parameters": [
    {
      "required": true,
      "Type": "Integer",
      "name": "id",
      "description": "Record id"
    },
    {
      "required": true,
      "Type": "Integer, String, Boolean",
      "name": "type",
      "description": "Boolean flag. Allow 1, '1', true and 0, '0', false.\n      Value from this field define record type(user: 0, place: 1)."
    }
  ],
  "response_fields": [

  ],
  "requests": [
    {
      "request_method": "POST",
      "request_path": "/api/v1/friends",
      "request_body": "{\"id\":72,\"type\":\"1\"}",
      "request_headers": {
        "Content-Type": "application/json",
        "Accept": "application/json",
        "Host": "",
        "Authorization": "Bearer eyJ0eXAiOiJKV1QiLCJhbGciOiJIUzI1NiJ9.eyJwaG9uZV9udW1iZXIiOiIrMzk1NjMxODY3MiIsInNvY2lhbF9pZCI6IjY3ODIyNzcyNDM4NTciLCJzb2NpYWxfbWFya2VyIjoxLCJjcmVhdGVkX2F0IjoiMjAxNi0xMC0wNiAxNjoyMDoxMiArMDMwMCIsInVwZGF0ZWRfYXQiOiIyMDE2LTEwLTA2IDE2OjIwOjEyICswMzAwIn0.IuN1R69ypWNEYsr00zd8psfy39KJwcsdVqL-12SR_6U",
        "Cookie": ""
      },
      "request_query_parameters": {
      },
      "request_content_type": "application/json",
      "response_status": 201,
      "response_status_text": "Created",
      "response_body": null,
      "response_headers": {
        "X-Frame-Options": "SAMEORIGIN",
        "X-XSS-Protection": "1; mode=block",
        "X-Content-Type-Options": "nosniff",
        "Content-Type": "application/json",
        "Cache-Control": "no-cache",
        "X-Request-Id": "eb31ffa7-db4a-4d03-bf60-204d81dfb908",
        "X-Runtime": "0.020783",
        "Content-Length": "0"
      },
      "response_content_type": "application/json",
      "curl": "curl \"sochiatlas.herokuapp.com/api/v1/friends\" -d '{\"id\":72,\"type\":\"1\"}' -X POST \\\n\t-H \"Content-Type: application/json\" \\\n\t-H \"Accept: application/json\" \\\n\t-H \"Authorization: Bearer eyJ0eXAiOiJKV1QiLCJhbGciOiJIUzI1NiJ9.eyJwaG9uZV9udW1iZXIiOiIrMzk1NjMxODY3MiIsInNvY2lhbF9pZCI6IjY3ODIyNzcyNDM4NTciLCJzb2NpYWxfbWFya2VyIjoxLCJjcmVhdGVkX2F0IjoiMjAxNi0xMC0wNiAxNjoyMDoxMiArMDMwMCIsInVwZGF0ZWRfYXQiOiIyMDE2LTEwLTA2IDE2OjIwOjEyICswMzAwIn0.IuN1R69ypWNEYsr00zd8psfy39KJwcsdVqL-12SR_6U\""
    }
  ]
}