{
  "resource": "Users - Update - Error",
  "http_method": "PUT",
  "route": "/api/v1/users/:id",
  "description": "Tries to update deleted user.",
  "explanation": "Update user with remote image url if all server validation passed.",
  "parameters": [
    {
      "required": true,
      "Type": "JSON object",
      "name": "user",
      "description": " user"
    },
    {
      "scope": "user",
      "Type": "String",
      "name": "first_name",
      "description": "User first_name"
    },
    {
      "scope": "user",
      "Type": "String",
      "name": "last_name",
      "description": "User last_name"
    },
    {
      "scope": "user",
      "Type": "String",
      "name": "latitude",
      "description": "Place latitude"
    },
    {
      "scope": "user",
      "Type": "String",
      "name": "longitude",
      "description": "Place longitude"
    },
    {
      "scope": "user",
      "Type": "Integer",
      "name": "age",
      "description": "User age. Should be in range from 1 to 100"
    },
    {
      "scope": "user",
      "Type": "String",
      "name": "sex",
      "description": "User sex. Should equal Male or Female"
    },
    {
      "scope": "user",
      "Type": "String",
      "name": "latitude",
      "description": "Place latitude"
    },
    {
      "scope": "user",
      "Type": "String",
      "name": "longitude",
      "description": "Place longitude"
    },
    {
      "scope": "user",
      "Type": "String",
      "name": "phone_number",
      "description": "User phone number.\n    Allow any number format. Phone number translate to '+XXXXXXXXXXX' format before save in db"
    },
    {
      "scope": "user",
      "Type": "String",
      "name": "image_path",
      "description": "User image. Can be uploaded as a new image or added as remote url."
    },
    {
      "scope": "user",
      "Type": "String",
      "name": "social_id",
      "description": "User id from social network"
    },
    {
      "scope": "user",
      "Type": "Integer",
      "name": "social_marker",
      "description": "Social network marker (vk: 0, ok: 1, fb: 2, digits: 3)"
    }
  ],
  "response_fields": [

  ],
  "requests": [
    {
      "request_method": "PUT",
      "request_path": "/api/v1/users/286",
      "request_body": "{\"user\":{\"first_name\":\"Leif\",\"last_name\":\"Wisozk\",\"latitude\":\"-24.83301587714766\",\"longitude\":\"-75.57231911950474\",\"age\":34,\"sex\":\"Female\",\"phone_number\":\"1-623-705-4136\",\"image_path\":\"https://pigment.github.io/fake-logos/logos/medium/color/13.png\",\"social_id\":\"1518009467148\",\"social_marker\":1}}",
      "request_headers": {
        "Content-Type": "application/json",
        "Accept": "application/json",
        "Host": "",
        "Authorization": "Bearer eyJ0eXAiOiJKV1QiLCJhbGciOiJIUzI1NiJ9.eyJwaG9uZV9udW1iZXIiOiIrNDk1MzIzMjE0NSIsInNvY2lhbF9pZCI6IjY2NjY3NjU2NjQ4NzciLCJzb2NpYWxfbWFya2VyIjoxLCJjcmVhdGVkX2F0IjoiMjAxNi0xMC0wNiAxNjoyMDoxOCArMDMwMCIsInVwZGF0ZWRfYXQiOiIyMDE2LTEwLTA2IDE2OjIwOjE4ICswMzAwIn0.0gJe82osUGgxAa0Y9USuYKpYVnRC2qDsbobtKeJ-Njw",
        "Cookie": ""
      },
      "request_query_parameters": {
      },
      "request_content_type": "application/json",
      "response_status": 404,
      "response_status_text": "Not Found",
      "response_body": "{\n  \"errors\": \"User not found\"\n}",
      "response_headers": {
        "X-Frame-Options": "SAMEORIGIN",
        "X-XSS-Protection": "1; mode=block",
        "X-Content-Type-Options": "nosniff",
        "Content-Type": "application/json; charset=utf-8",
        "Cache-Control": "no-cache",
        "X-Request-Id": "9cf61736-9d33-4621-b915-2f3c4c4ccea1",
        "X-Runtime": "0.003577",
        "Content-Length": "27"
      },
      "response_content_type": "application/json; charset=utf-8",
      "curl": "curl \"sochiatlas.herokuapp.com/api/v1/users/286\" -d '{\"user\":{\"first_name\":\"Leif\",\"last_name\":\"Wisozk\",\"latitude\":\"-24.83301587714766\",\"longitude\":\"-75.57231911950474\",\"age\":34,\"sex\":\"Female\",\"phone_number\":\"1-623-705-4136\",\"image_path\":\"https://pigment.github.io/fake-logos/logos/medium/color/13.png\",\"social_id\":\"1518009467148\",\"social_marker\":1}}' -X PUT \\\n\t-H \"Content-Type: application/json\" \\\n\t-H \"Accept: application/json\" \\\n\t-H \"Authorization: Bearer eyJ0eXAiOiJKV1QiLCJhbGciOiJIUzI1NiJ9.eyJwaG9uZV9udW1iZXIiOiIrNDk1MzIzMjE0NSIsInNvY2lhbF9pZCI6IjY2NjY3NjU2NjQ4NzciLCJzb2NpYWxfbWFya2VyIjoxLCJjcmVhdGVkX2F0IjoiMjAxNi0xMC0wNiAxNjoyMDoxOCArMDMwMCIsInVwZGF0ZWRfYXQiOiIyMDE2LTEwLTA2IDE2OjIwOjE4ICswMzAwIn0.0gJe82osUGgxAa0Y9USuYKpYVnRC2qDsbobtKeJ-Njw\""
    }
  ]
}