{
  "resource": "Users - Find - Errors",
  "http_method": "GET",
  "route": "/api/v1/users",
  "description": "Finding a user by token",
  "explanation": "Client can find user by token.\n        This endpoint returns 403 if token is invalid or was not found.",
  "parameters": [

  ],
  "response_fields": [
    {
      "Type": "JSON object",
      "name": "user",
      "description": " user"
    }
  ],
  "requests": [
    {
      "request_method": "GET",
      "request_path": "/api/v1/users",
      "request_body": null,
      "request_headers": {
        "Content-Type": "application/json",
        "Accept": "application/json",
        "Host": "",
        "Authorization": "eyJ0eXAiOiJKV1QiLCJhbGciOiJIUzI1NiJ9.eyJwaG9uZV9udW1iZXIiOiIrOTI2MTE0NTg3MCIsInNvY2lhbF9pZCI6IjE0NTQwMzA1NjE1MzMiLCJzb2NpYWxfbWFya2VyIjowLCJjcmVhdGVkX2F0IjoiMjAxNi0xMC0wNiAxNjoyMDoxNyArMDMwMCIsInVwZGF0ZWRfYXQiOiIyMDE2LTEwLTA2IDE2OjIwOjE3ICswMzAwIn0.oROPKlLytfIrSGkNFJThEX0iqyF98lE6YapniAKDF8M",
        "Cookie": ""
      },
      "request_query_parameters": {
        "{}": null
      },
      "request_content_type": "application/json",
      "response_status": 403,
      "response_status_text": "Forbidden",
      "response_body": null,
      "response_headers": {
        "X-Frame-Options": "SAMEORIGIN",
        "X-XSS-Protection": "1; mode=block",
        "X-Content-Type-Options": "nosniff",
        "Content-Type": "application/json",
        "Cache-Control": "no-cache",
        "X-Request-Id": "23a0a900-90a7-4c66-8f35-8a2e70071826",
        "X-Runtime": "0.002860",
        "Content-Length": "0"
      },
      "response_content_type": "application/json",
      "curl": "curl \"sochiatlas.herokuapp.com/api/v1/users\" -X GET \\\n\t-H \"Content-Type: application/json\" \\\n\t-H \"Accept: application/json\" \\\n\t-H \"Authorization: eyJ0eXAiOiJKV1QiLCJhbGciOiJIUzI1NiJ9.eyJwaG9uZV9udW1iZXIiOiIrOTI2MTE0NTg3MCIsInNvY2lhbF9pZCI6IjE0NTQwMzA1NjE1MzMiLCJzb2NpYWxfbWFya2VyIjowLCJjcmVhdGVkX2F0IjoiMjAxNi0xMC0wNiAxNjoyMDoxNyArMDMwMCIsInVwZGF0ZWRfYXQiOiIyMDE2LTEwLTA2IDE2OjIwOjE3ICswMzAwIn0.oROPKlLytfIrSGkNFJThEX0iqyF98lE6YapniAKDF8M\""
    }
  ]
}