{
  "resource": "Places - Update - Errors",
  "http_method": "PUT",
  "route": "/api/v1/places/:id",
  "description": "Invalid place attributes. Shouldn't update a place.",
  "explanation": "Updating a place in db if all server validation passed.\n        Phone_number & Social_marker and Social_id & Social_marker this pairs must be unique",
  "parameters": [
    {
      "required": true,
      "Type": "JSON object",
      "name": "place",
      "description": " place"
    },
    {
      "scope": "place",
      "required": true,
      "Type": "JSON object",
      "name": "user_attributes",
      "description": "Place user attributes"
    },
    {
      "required": true,
      "scope": "place",
      "Type": "String",
      "name": "name",
      "description": "Place name(Place title)"
    },
    {
      "scope": "place",
      "required": true,
      "Type": "String",
      "name": "description",
      "description": "Place description"
    },
    {
      "scope": "place",
      "required": true,
      "Type": "String",
      "name": "additional_phone_number",
      "description": "Place official number"
    },
    {
      "scope": [
        "place",
        "user_attributes"
      ],
      "required": true,
      "Type": "String",
      "name": "latitude",
      "description": "Place latitude"
    },
    {
      "scope": [
        "place",
        "user_attributes"
      ],
      "required": true,
      "Type": "String",
      "name": "longitude",
      "description": "Place longitude"
    },
    {
      "scope": [
        "place",
        "user_attributes"
      ],
      "required": true,
      "Type": "String",
      "name": "phone_number",
      "description": "Phone number for registration and auth.\n    Phone number translate to '+XXXXXXXXXXX' format before save in db"
    },
    {
      "scope": [
        "place",
        "user_attributes"
      ],
      "required": true,
      "Type": "String",
      "name": "social_id",
      "description": "Place id from social network"
    },
    {
      "scope": [
        "place",
        "user_attributes"
      ],
      "required": true,
      "Type": "String",
      "name": "social_marker",
      "description": "Social network marker (vk: 0, ok: 1, fb: 2, digits: 3)"
    },
    {
      "scope": [
        "place",
        "user_attributes"
      ],
      "required": true,
      "Type": "String",
      "name": "image_path",
      "description": "Place image url"
    }
  ],
  "response_fields": [
    {
      "Type": "JSON object",
      "name": "place",
      "description": " place"
    },
    {
      "scope": "place",
      "Type": "String",
      "name": "token",
      "description": "Auth token"
    }
  ],
  "requests": [
    {
      "request_method": "PUT",
      "request_path": "/api/v1/places/136",
      "request_body": "{\"place\":{\"name\":null,\"description\":\"ТСЖ Вадим\",\"additional_phone_number\":\"(948)810-77-63\",\"user_attributes\":{\"latitude\":\"-44.43694009014033\",\"longitude\":\"-169.4385410108209\",\"phone_number\":\"1-291-008-5885\",\"social_id\":\"7346237780890\",\"social_marker\":2,\"image_path\":\"https://pigment.github.io/fake-logos/logos/medium/color/12.png\"}}}",
      "request_headers": {
        "Content-Type": "application/json",
        "Accept": "application/json",
        "Host": "",
        "Authorization": "Bearer eyJ0eXAiOiJKV1QiLCJhbGciOiJIUzI1NiJ9.eyJwaG9uZV9udW1iZXIiOiIrMzE5MjExMjY0OCIsInNvY2lhbF9pZCI6IjA4MTM0NDcyMzc5NzMiLCJzb2NpYWxfbWFya2VyIjoyLCJjcmVhdGVkX2F0IjoiMjAxNi0xMC0wNiAxNjoyMDoxNyArMDMwMCIsInVwZGF0ZWRfYXQiOiIyMDE2LTEwLTA2IDE2OjIwOjE3ICswMzAwIn0.5To_98h7yU9DvZTg4-bs7Fu2dqEgoMZdlzaGlaXtkZc",
        "Cookie": ""
      },
      "request_query_parameters": {
      },
      "request_content_type": "application/json",
      "response_status": 400,
      "response_status_text": "Bad Request",
      "response_body": "{\n  \"errors\": [\n    \"Название translation missing: ru.activerecord.errors.models.place.attributes.name.blank\"\n  ]\n}",
      "response_headers": {
        "X-Frame-Options": "SAMEORIGIN",
        "X-XSS-Protection": "1; mode=block",
        "X-Content-Type-Options": "nosniff",
        "Content-Type": "application/json; charset=utf-8",
        "Cache-Control": "no-cache",
        "X-Request-Id": "cafbd1d5-5089-4207-96ee-f8d1118c2a2f",
        "X-Runtime": "0.020426",
        "Content-Length": "110"
      },
      "response_content_type": "application/json; charset=utf-8",
      "curl": "curl \"sochiatlas.herokuapp.com/api/v1/places/136\" -d '{\"place\":{\"name\":null,\"description\":\"ТСЖ Вадим\",\"additional_phone_number\":\"(948)810-77-63\",\"user_attributes\":{\"latitude\":\"-44.43694009014033\",\"longitude\":\"-169.4385410108209\",\"phone_number\":\"1-291-008-5885\",\"social_id\":\"7346237780890\",\"social_marker\":2,\"image_path\":\"https://pigment.github.io/fake-logos/logos/medium/color/12.png\"}}}' -X PUT \\\n\t-H \"Content-Type: application/json\" \\\n\t-H \"Accept: application/json\" \\\n\t-H \"Authorization: Bearer eyJ0eXAiOiJKV1QiLCJhbGciOiJIUzI1NiJ9.eyJwaG9uZV9udW1iZXIiOiIrMzE5MjExMjY0OCIsInNvY2lhbF9pZCI6IjA4MTM0NDcyMzc5NzMiLCJzb2NpYWxfbWFya2VyIjoyLCJjcmVhdGVkX2F0IjoiMjAxNi0xMC0wNiAxNjoyMDoxNyArMDMwMCIsInVwZGF0ZWRfYXQiOiIyMDE2LTEwLTA2IDE2OjIwOjE3ICswMzAwIn0.5To_98h7yU9DvZTg4-bs7Fu2dqEgoMZdlzaGlaXtkZc\""
    }
  ]
}