{
  "resource": "Places - Find - Errors",
  "http_method": "GET",
  "route": "/api/v1/places",
  "description": "Finding a place token by phone number & social_id",
  "explanation": "Client can find place token by social_id & social_marker pair or phone_number & social_id.\n        This endpoint returns errors if phone_number & social_id pair is invalid or was not found.\n\n        Phone_number & Social_marker and Social_id & Social_marker this pairs must be unique",
  "parameters": [
    {
      "required": true,
      "Type": "JSON object",
      "name": "place",
      "description": " place"
    },
    {
      "scope": "place",
      "Type": "String",
      "name": "phone_number",
      "description": "User phone number.\n      Allow any number format. Phone number translate to '+XXXXXXXXXXX' format before save in db"
    },
    {
      "scope": "place",
      "Type": "String",
      "name": "social_id",
      "description": "User id from social network"
    },
    {
      "scope": "place",
      "Type": "Integer",
      "name": "social_marker",
      "description": "Social network marker (vk: 0, ok: 1, fb: 2, digits: 3)"
    }
  ],
  "response_fields": [

  ],
  "requests": [
    {
      "request_method": "GET",
      "request_path": "/api/v1/places?place[phone_number]=%28921%29+672-1969&place[social_id]=0033407653685",
      "request_body": null,
      "request_headers": {
        "Content-Type": "application/json",
        "Accept": "application/json",
        "Host": "",
        "Cookie": ""
      },
      "request_query_parameters": {
        "place": {
          "phone_number": "(921) 672-1969",
          "social_id": "0033407653685"
        }
      },
      "request_content_type": "application/json",
      "response_status": 404,
      "response_status_text": "Not Found",
      "response_body": "{\n  \"errors\": \"User not found\"\n}",
      "response_headers": {
        "X-Frame-Options": "SAMEORIGIN",
        "X-XSS-Protection": "1; mode=block",
        "X-Content-Type-Options": "nosniff",
        "Content-Type": "application/json; charset=utf-8",
        "Cache-Control": "no-cache",
        "X-Request-Id": "44641846-f75a-487a-aca4-900f98fb94c4",
        "X-Runtime": "0.004193",
        "Content-Length": "27"
      },
      "response_content_type": "application/json; charset=utf-8",
      "curl": "curl \"sochiatlas.herokuapp.com/api/v1/places?place[phone_number]=%28921%29+672-1969&place[social_id]=0033407653685\" -X GET \\\n\t-H \"Content-Type: application/json\" \\\n\t-H \"Accept: application/json\""
    }
  ]
}