{
  "resource": "Violation - Destroy - Error",
  "http_method": "DELETE",
  "route": "/api/v1/violations/:id",
  "description": "Violation is not found.",
  "explanation": "Return error, when violation is not found in database.",
  "parameters": [
    {
      "required": true,
      "Type": "String, Integer",
      "name": "id",
      "description": "Violation's id."
    }
  ],
  "response_fields": [
    {
      "Type": "JSON object",
      "name": "violation",
      "description": " violation"
    }
  ],
  "requests": [
    {
      "request_method": "DELETE",
      "request_path": "/api/v1/violations/84",
      "request_body": "{}",
      "request_headers": {
        "Content-Type": "application/json",
        "Accept": "application/json",
        "Authorization": "Bearer eyJ0eXAiOiJKV1QiLCJhbGciOiJIUzI1NiJ9.eyJwaG9uZV9udW1iZXIiOiIrNzA2MTQ3NjIzNSIsInNvY2lhbF9pZCI6IjEyNzgxNDExNjg3NTMiLCJzb2NpYWxfbWFya2VyIjoyLCJjcmVhdGVkX2F0IjoiMjAxNi0xMC0wNiAxNjoyMDoxOCArMDMwMCIsInVwZGF0ZWRfYXQiOiIyMDE2LTEwLTA2IDE2OjIwOjE4ICswMzAwIn0.x04R_IOJPfimejAYO-bvm9TPEVF0UHmcmAwb1R7DJiA",
        "Host": "example.org",
        "Cookie": ""
      },
      "request_query_parameters": {
      },
      "request_content_type": "application/json",
      "response_status": 404,
      "response_status_text": "Not Found",
      "response_body": "{\n  \"errors\": \"Violation not found\"\n}",
      "response_headers": {
        "X-Frame-Options": "SAMEORIGIN",
        "X-XSS-Protection": "1; mode=block",
        "X-Content-Type-Options": "nosniff",
        "Content-Type": "application/json; charset=utf-8",
        "Cache-Control": "no-cache",
        "X-Request-Id": "dba1ed3d-2658-4f95-8ee2-d8dba60f4923",
        "X-Runtime": "0.004921",
        "Content-Length": "32"
      },
      "response_content_type": "application/json; charset=utf-8",
      "curl": "curl \"sochiatlas.herokuapp.com/api/v1/violations/84\" -d '{}' -X DELETE \\\n\t-H \"Content-Type: application/json\" \\\n\t-H \"Accept: application/json\" \\\n\t-H \"Authorization: Bearer eyJ0eXAiOiJKV1QiLCJhbGciOiJIUzI1NiJ9.eyJwaG9uZV9udW1iZXIiOiIrNzA2MTQ3NjIzNSIsInNvY2lhbF9pZCI6IjEyNzgxNDExNjg3NTMiLCJzb2NpYWxfbWFya2VyIjoyLCJjcmVhdGVkX2F0IjoiMjAxNi0xMC0wNiAxNjoyMDoxOCArMDMwMCIsInVwZGF0ZWRfYXQiOiIyMDE2LTEwLTA2IDE2OjIwOjE4ICswMzAwIn0.x04R_IOJPfimejAYO-bvm9TPEVF0UHmcmAwb1R7DJiA\""
    }
  ]
}