{
  "resource": "Users - Get - Error",
  "http_method": "GET",
  "route": "/api/v1/users/:id",
  "description": "Finding a user by id",
  "explanation": "Client can find user by id. This endpoint returns user if id is valid or found.",
  "parameters": [
    {
      "Type": "String",
      "name": "id",
      "description": "User id"
    }
  ],
  "response_fields": [
    {
      "Type": "JSON object",
      "name": "user",
      "description": " user"
    }
  ],
  "requests": [
    {
      "request_method": "GET",
      "request_path": "/api/v1/users/293",
      "request_body": null,
      "request_headers": {
        "Content-Type": "application/json",
        "Accept": "application/json",
        "Host": "",
        "Cookie": ""
      },
      "request_query_parameters": {
        "{}": null
      },
      "request_content_type": "application/json",
      "response_status": 404,
      "response_status_text": "Not Found",
      "response_body": "{\n  \"errors\": \"User not found\"\n}",
      "response_headers": {
        "X-Frame-Options": "SAMEORIGIN",
        "X-XSS-Protection": "1; mode=block",
        "X-Content-Type-Options": "nosniff",
        "Content-Type": "application/json; charset=utf-8",
        "Cache-Control": "no-cache",
        "X-Request-Id": "05950c3a-0e36-4c4b-80e4-0c6de2defbfa",
        "X-Runtime": "0.002941",
        "Content-Length": "27"
      },
      "response_content_type": "application/json; charset=utf-8",
      "curl": "curl \"sochiatlas.herokuapp.com/api/v1/users/293\" -X GET \\\n\t-H \"Content-Type: application/json\" \\\n\t-H \"Accept: application/json\""
    }
  ]
}