{
  "resource": "Chats - Create - Success",
  "http_method": "POST",
  "route": "/api/v1/chats",
  "description": "Create chat from current user and current user is user and recipient is a place",
  "explanation": "Auth client can create chat between self and one recipient.\n\n        This endpoint returns 201 and chat json if chat is created",
  "parameters": [
    {
      "require": true,
      "Type": "JSON Object",
      "name": "chat",
      "description": " chat"
    },
    {
      "require": true,
      "Type": "String",
      "scope": "chat",
      "name": "recipient_phone_number",
      "description": "Recipient phone number"
    },
    {
      "require": true,
      "Type": "String",
      "scope": "chat",
      "name": "body",
      "description": "Text of the first message in the chat"
    }
  ],
  "response_fields": [
    {
      "Type": "JSON object",
      "name": "chat",
      "description": " chat"
    },
    {
      "Type": "Integer",
      "scope": "chat",
      "name": "id",
      "description": "Chat id"
    },
    {
      "Type": "JSON object",
      "scope": "chat",
      "name": "users",
      "description": "Chat users"
    },
    {
      "Type": "String",
      "scope": [
        "chat",
        "users"
      ],
      "name": "recipient_phone_number",
      "description": "Recipient phone number"
    },
    {
      "Type": "String",
      "scope": [
        "chat",
        "users"
      ],
      "name": "sender_phone_number",
      "description": "Sender phone number"
    },
    {
      "Type": "Integer",
      "scope": "chats",
      "name": "unread_sender_messages_count",
      "description": "Show number of unread messages in this chat for sender"
    },
    {
      "Type": "Integer",
      "scope": "chats",
      "name": "unread_recipient_messages_count",
      "description": "Show common number of unread messages in this chat for recipient"
    },
    {
      "Type": "Integer",
      "scope": "chat",
      "name": "last_read_message_id",
      "description": "Id of last read message in this chat.\n          0 if all messages in chat not reading"
    },
    {
      "Type": "JSON object",
      "scope": "chat",
      "name": "last_message",
      "description": "Chat last message"
    },
    {
      "Type": "Integer",
      "scope": [
        "chat",
        "last_message"
      ],
      "name": "id",
      "description": "Last message id"
    },
    {
      "Type": "String",
      "scope": [
        "chat",
        "last_message"
      ],
      "name": "body",
      "description": "Text of the message"
    },
    {
      "Type": "JSON object",
      "scope": [
        "chat",
        "last_message"
      ],
      "name": "sender",
      "description": "If sender is user"
    },
    {
      "scope": [
        "chat",
        "last_message",
        "sender"
      ],
      "Type": "Integer",
      "name": "id",
      "description": "User id"
    },
    {
      "scope": [
        "chat",
        "last_message",
        "sender"
      ],
      "Type": "String",
      "name": "first_name",
      "description": "User first_name"
    },
    {
      "scope": [
        "chat",
        "last_message",
        "sender"
      ],
      "Type": "String",
      "name": "last_name",
      "description": "User last_name"
    },
    {
      "scope": [
        "chat",
        "last_message",
        "sender"
      ],
      "Type": "Integer",
      "name": "age",
      "description": "User age"
    },
    {
      "scope": [
        "chat",
        "last_message",
        "sender"
      ],
      "Type": "String",
      "name": "sex",
      "description": "User sex"
    },
    {
      "scope": [
        "chat",
        "last_message",
        "sender"
      ],
      "Type": "String",
      "name": "latitude",
      "description": "User latitude"
    },
    {
      "scope": [
        "chat",
        "last_message",
        "sender"
      ],
      "Type": "String",
      "name": "longitude",
      "description": "User longitude"
    },
    {
      "scope": [
        "chat",
        "last_message",
        "sender"
      ],
      "Type": "String",
      "name": "phone_number",
      "description": "User phone number"
    },
    {
      "scope": [
        "chat",
        "last_message",
        "sender"
      ],
      "Type": "String",
      "name": "image_path",
      "description": "User image url"
    },
    {
      "Type": "Integer",
      "scope": [
        "chat",
        "last_message"
      ],
      "name": "created_at_millis",
      "description": "Created at timestamp in millis"
    },
    {
      "Type": "Boolean",
      "scope": [
        "chat",
        "last_message"
      ],
      "name": "read",
      "description": "This flag show state of current message read or unread"
    }
  ],
  "requests": [
    {
      "request_method": "POST",
      "request_path": "/api/v1/chats",
      "request_body": "{\"chat\":{\"recipient_phone_number\":\"+7148758214\",\"body\":\"Hasta la vista, baby\"}}",
      "request_headers": {
        "Content-Type": "application/json",
        "Accept": "application/json",
        "Host": "",
        "Authorization": "Bearer eyJ0eXAiOiJKV1QiLCJhbGciOiJIUzI1NiJ9.eyJwaG9uZV9udW1iZXIiOiIrMjQ3NDgwOTMyMSIsInNvY2lhbF9pZCI6Ijg4MTM3MjMzMzA2MDQiLCJzb2NpYWxfbWFya2VyIjoxLCJjcmVhdGVkX2F0IjoiMjAxNi0xMC0wNiAxNjoyMDowOSArMDMwMCIsInVwZGF0ZWRfYXQiOiIyMDE2LTEwLTA2IDE2OjIwOjA5ICswMzAwIn0.vJxbSeXbtIIZS3S3tfeK76RL2_MvOWNAiNvkAUOLBr4",
        "Cookie": ""
      },
      "request_query_parameters": {
      },
      "request_content_type": "application/json",
      "response_status": 201,
      "response_status_text": "Created",
      "response_body": "{\n  \"chat\": {\n    \"id\": 9,\n    \"users\": {\n      \"recipient_phone_number\": \"+7148758214\",\n      \"sender_phone_number\": \"+2474809321\"\n    },\n    \"unread_sender_messages_count\": 1,\n    \"unread_recipient_messages_count\": 1,\n    \"last_message\": {\n      \"id\": 17,\n      \"body\": \"Hasta la vista, baby\",\n      \"created_at_millis\": 1475760009,\n      \"read\": false,\n      \"sender\": {\n        \"id\": 47,\n        \"first_name\": \"Leanne\",\n        \"last_name\": \"Kshlerin\",\n        \"age\": 59,\n        \"sex\": \"Male\",\n        \"latitude\": \"-13.935616\",\n        \"longitude\": \"-0.174156\",\n        \"phone_number\": \"+2474809321\",\n        \"image_path\": \"https://pigment.github.io/fake-logos/logos/medium/color/13.png\"\n      }\n    },\n    \"last_read_message_id\": 0,\n    \"recipient\": {\n      \"id\": 27,\n      \"name\": \"пр. Зеленая\",\n      \"description\": \"ИП Ларионов\",\n      \"additional_phone_number\": \"(916)519-71-30\",\n      \"image_path\": \"https://pigment.github.io/fake-logos/logos/medium/color/8.png\",\n      \"address\": \"Островского проспект, 793\",\n      \"latitude\": \"73.841619\",\n      \"longitude\": \"-143.423671\",\n      \"weekdays_hours\": \"7:30 - 17:00\",\n      \"weekends_hours\": \"10:00 - 17:00, 0\",\n      \"average_rating\": 56.56,\n      \"phone_number\": \"+7148758214\"\n    }\n  }\n}",
      "response_headers": {
        "X-Frame-Options": "SAMEORIGIN",
        "X-XSS-Protection": "1; mode=block",
        "X-Content-Type-Options": "nosniff",
        "Content-Type": "application/json; charset=utf-8",
        "ETag": "W/\"ef30f5094333f3408454d531a9399b9b\"",
        "Cache-Control": "max-age=0, private, must-revalidate",
        "X-Request-Id": "d689a5e6-cee1-44be-b47f-f9f353690654",
        "X-Runtime": "0.067737",
        "Content-Length": "972"
      },
      "response_content_type": "application/json; charset=utf-8",
      "curl": "curl \"sochiatlas.herokuapp.com/api/v1/chats\" -d '{\"chat\":{\"recipient_phone_number\":\"+7148758214\",\"body\":\"Hasta la vista, baby\"}}' -X POST \\\n\t-H \"Content-Type: application/json\" \\\n\t-H \"Accept: application/json\" \\\n\t-H \"Authorization: Bearer eyJ0eXAiOiJKV1QiLCJhbGciOiJIUzI1NiJ9.eyJwaG9uZV9udW1iZXIiOiIrMjQ3NDgwOTMyMSIsInNvY2lhbF9pZCI6Ijg4MTM3MjMzMzA2MDQiLCJzb2NpYWxfbWFya2VyIjoxLCJjcmVhdGVkX2F0IjoiMjAxNi0xMC0wNiAxNjoyMDowOSArMDMwMCIsInVwZGF0ZWRfYXQiOiIyMDE2LTEwLTA2IDE2OjIwOjA5ICswMzAwIn0.vJxbSeXbtIIZS3S3tfeK76RL2_MvOWNAiNvkAUOLBr4\""
    }
  ]
}